.....
----------------------------------------------------------------------
Ran 5 tests in 0.001s

OK
Name               Stmts   Miss Branch BrPart  Cover   Missing
--------------------------------------------------------------
Diplomacy.py          49      0     40      1    99%   53->52
TestDiplomacy.py      29      0      0      0   100%
--------------------------------------------------------------
TOTAL                 78      0     40      1    99%
